# nombre maximum de sommets
11
# oriente
n
# sommets : voisins
1 : (4/5), (7/1), (3/2)
2 : (5/4), (7/8)
3 : (1/2), (6/8)
4 : (1/5), (7/3), (6/5)
5 : (2/4), (8/2)
6 : (3/8), (4/5)
7 : (1/1), (2/8), (4/3)
8 : (5/2)
